\relax 
\providecommand\hyper@newdestlabel[2]{}
\providecommand\HyperFirstAtBeginDocument{\AtBeginDocument}
\HyperFirstAtBeginDocument{\ifx\hyper@anchor\@undefined
\global\let\oldcontentsline\contentsline
\gdef\contentsline#1#2#3#4{\oldcontentsline{#1}{#2}{#3}}
\global\let\oldnewlabel\newlabel
\gdef\newlabel#1#2{\newlabelxx{#1}#2}
\gdef\newlabelxx#1#2#3#4#5#6{\oldnewlabel{#1}{{#2}{#3}}}
\AtEndDocument{\ifx\hyper@anchor\@undefined
\let\contentsline\oldcontentsline
\let\newlabel\oldnewlabel
\fi}
\fi}
\global\let\hyper@last\relax 
\gdef\HyperFirstAtBeginDocument#1{#1}
\providecommand\HyField@AuxAddToFields[1]{}
\providecommand\HyField@AuxAddToCoFields[2]{}
\citation{1964MNRAS.128..307R}
\newlabel{FirstPage}{{}{1}{}{section*.1}{}}
\@writefile{toc}{\contentsline {abstract}{ABSTRACT}{1}{section*.1}}
\@writefile{toc}{\contentsline {section}{\numberline {1}Introduction}{1}{section.1}}
\@writefile{toc}{\contentsline {section}{\numberline {2}Forward Problem}{1}{section.2}}
\newlabel{sec:forward}{{2}{1}{Forward Problem}{section.2}{}}
\@writefile{toc}{\contentsline {subsection}{\numberline {2.1}Gravitational Lensing Basics}{1}{subsection.2.1}}
\newlabel{sec:lensing}{{2.1}{1}{Gravitational Lensing Basics}{subsection.2.1}{}}
\newlabel{eq:lens}{{1}{1}{Gravitational Lensing Basics}{equation.2.1}{}}
\citation{KormannR.SchneiderP.Bartelmann1994}
\citation{Treu2010}
\newlabel{fig:lensgeom}{{1}{2}{Basic gravitational lensing geometry. A light ray from the source $S$ with true angle position $\beta $ (located at $D_{S}$ from the observer) approaching the lens (located at $D_{L}$ from the observer) at impact parameter $\xi $, is deflected by angle $\hat {\alpha }$. The deflected the ray reaches the observer, who sees the image $I$ at angle $\theta $}{figure.1}{}}
\@writefile{toc}{\contentsline {subsection}{\numberline {2.2}Singular Isothermal Ellipsoid Lensing potential}{2}{subsection.2.2}}
\newlabel{eq:ax}{{9}{2}{Singular Isothermal Ellipsoid Lensing potential}{equation.2.9}{}}
\newlabel{eq:ay}{{10}{2}{Singular Isothermal Ellipsoid Lensing potential}{equation.2.10}{}}
\citation{Newbury2002}
\newlabel{eq:mag}{{11}{3}{Singular Isothermal Ellipsoid Lensing potential}{equation.2.11}{}}
\@writefile{toc}{\contentsline {subsection}{\numberline {2.3}Source Brightness Profile}{3}{subsection.2.3}}
\@writefile{toc}{\contentsline {subsection}{\numberline {2.4}Ray Tracing}{3}{subsection.2.4}}
\@writefile{toc}{\contentsline {subsection}{\numberline {2.5}Modeling Observations}{3}{subsection.2.5}}
\@writefile{toc}{\contentsline {section}{\numberline {3}Inverse problem}{3}{section.3}}
\newlabel{sec:inverse}{{3}{3}{Inverse problem}{section.3}{}}
\@writefile{toc}{\contentsline {subsection}{\numberline {3.1}Bayesian framework}{3}{subsection.3.1}}
\newlabel{eq:posterior}{{14}{3}{Bayesian framework}{equation.3.14}{}}
\citation{Neal03}
\newlabel{fig:demo}{{2}{4}{Example lensing images generated by ray tracing of an ellipitcal gaussian source lensed by a SIE potential. The SIE potential have the same parameter set $b=2.92''$, $\vec {x}_{L}=(0,0)$, $\theta _{L}=0.2\pi $, $e_{L}=0.3$, $s_{L}=0''$. The critical lines of the lensing potential is indicated by the red dash dotted line. The source has the same physical parameter $a_{S}=0.16'',q_{S}=0.6,s_{0}=1$ but have varying position and angles, which are indicated by the yellow ellipse inside the cyan box. The red diamond shows the position of the caustics in the source plane}{figure.2}{}}
\@writefile{toc}{\contentsline {subsection}{\numberline {3.2}Appliation to an elliptical Gaussian source lensed by a SIE lensing potential}{4}{subsection.3.2}}
\newlabel{sec:SIEGauss}{{3.2}{4}{Appliation to an elliptical Gaussian source lensed by a SIE lensing potential}{subsection.3.2}{}}
\newlabel{sec:SIEpixel}{{3.3}{4}{Application to a pixelated source lensed by SIE}{subsection.3.3}{}}
\@writefile{toc}{\contentsline {subsection}{\numberline {3.3}Application to a pixelated source lensed by SIE}{4}{subsection.3.3}}
\bibdata{reportNotes,mybib}
\newlabel{table:SIEGauss}{{1}{5}{Model parameter, mean of the posterior, choice of prior and width of the slice sampling for data generated by a parameterized elliptical Gaussian lensed by a SIE potential presented in Sec. \ref {sec:SIEGauss}}{table.1}{}}
\newlabel{fig:Gaussdata}{{3}{5}{Left panel: mock data including blurring and noise with peak S/N=20 for the parameterized elliptical Gaussian source lensed by a SIE. Right panel: image corresponding to the maximum of the posterior presented in Figure \ref {fig:Gaussscorner}}{figure.3}{}}
\newlabel{table:SIEpixel}{{2}{5}{Model parameter, mean of the posterior, choice of prior and width of the slice sampling for parameters related to the pixelated source lensed by SIE data presented in Section \ref {sec:SIEpixel}}{table.2}{}}
\bibcite{KormannR.SchneiderP.Bartelmann1994}{{1}{1994}{{Kormann, R., Schneider, P., Bartelmann}}{{}}}
\bibcite{Neal03}{{2}{2003}{{Neal}}{{}}}
\bibcite{Newbury2002}{{3}{2002}{{Newbury \& Spiteri}}{{}}}
\bibcite{1964MNRAS.128..307R}{{4}{1964}{{Refsdal}}{{}}}
\bibcite{Treu2010}{{5}{2010}{{Treu}}{{}}}
\bibstyle{apj}
\newlabel{fig:Gausscorner}{{3}{6}{Appliation to an elliptical Gaussian source lensed by a SIE lensing potential}{figure.3}{}}
\newlabel{fig:Gaussscorner}{{4}{6}{Joint posterior distribution of selected parameters after fitting the data in Sec. \ref {sec:SIEGauss}. The black dashed lines indicated the mean and 1-$\sigma $ confidence intervals of the marginal posterior of each parameter. The true values of the parameters are indicated by the cyan solid lines. An animation of the slice sampling process can be viewed online at \protect \url {https://youtu.be/1Zhu_mSPe-U}}{figure.4}{}}
\newlabel{fig:pixelsource}{{5}{6}{Panel 1: true source profile on a $12\times 12$ grid. Panel 2: mock data of the pixelated source lensed by a SIE with parameters summarized in Table \ref {table:SIEpixel}. Panel 3: image corresponding to the MAP of the distribution shown in Figure \ref {fig:pixelcorner} and Figure \ref {fig:meansource}}{figure.5}{}}
\newlabel{fig:pixelcorner}{{6}{7}{Joint posterior distribution of the lens parameters fitted from data in Section \ref {sec:SIEpixel}. An animation of the slice sampling process can be viewed online at \protect \url {https://youtu.be/lhWx1txiHM4}}{figure.6}{}}
\newlabel{fig:meansource}{{7}{7}{Panel 1: mean of the posterior of the source pixel values; panel 2: standard deviation of the posterior of the source pixel values; panel 3: error of the mean source with respect to the true source}{figure.7}{}}
\newlabel{LastPage}{{}{7}{}{}{}}
